B_digital_(T)	B_analog_(T)	I_s	V_s	R_s	T_VTI_(K)	T_sample_(K)	Time
5.99900E-1	6.03747E-1	2.00000E-6	9.71636E-3	4.85818E+3	2.60030E+1	2.80300E+1	5.82216E+4
3.99900E-1	4.01814E-1	2.00000E-6	8.93908E-3	4.46954E+3	2.60040E+1	2.80230E+1	5.83095E+4
1.99900E-1	2.00598E-1	2.00000E-6	7.99087E-3	3.99544E+3	2.60020E+1	2.80200E+1	5.83968E+4
0.00000E+0	8.35703E-5	2.00000E-6	6.72804E-3	3.36402E+3	2.60030E+1	2.80210E+1	5.85175E+4
-1.99900E-1	-2.00136E-1	2.00000E-6	8.60908E-3	4.30454E+3	2.60010E+1	2.80180E+1	5.86066E+4
-3.99900E-1	-4.01124E-1	2.00000E-6	1.01011E-2	5.05057E+3	2.60020E+1	2.80180E+1	5.86935E+4
-5.99900E-1	-6.02635E-1	2.00000E-6	1.14074E-2	5.70368E+3	2.59990E+1	2.80140E+1	5.87807E+4
5.99900E-1	6.03912E-1	2.00000E-6	9.82404E-3	4.91202E+3	2.60000E+1	2.80130E+1	5.89276E+4
