B_digital_(T)	B_analog_(T)	I_s	V_s	R_s	T_VTI_(K)	T_sample_(K)	Time
5.99900E-1	6.05354E-1	1.00000E-3	5.37335E-2	5.37335E+1	3.60000E+1	3.80380E+1	6.87555E+4
3.99900E-1	4.02878E-1	1.00000E-3	5.07165E-2	5.07165E+1	3.60170E+1	3.80390E+1	6.88433E+4
1.99900E-1	2.01094E-1	1.00000E-3	4.61875E-2	4.61875E+1	3.60000E+1	3.80310E+1	6.89304E+4
0.00000E+0	1.58893E-4	1.00000E-3	4.07586E-2	4.07586E+1	3.59960E+1	3.80230E+1	6.90514E+4
-1.99900E-1	-2.00595E-1	1.00000E-3	4.82579E-2	4.82579E+1	3.60020E+1	3.80180E+1	6.91414E+4
-3.99900E-1	-4.02192E-1	1.00000E-3	5.48604E-2	5.48605E+1	3.60000E+1	3.80200E+1	6.92283E+4
-5.99900E-1	-6.04249E-1	1.00000E-3	5.93442E-2	5.93442E+1	3.59990E+1	3.80190E+1	6.93164E+4
5.99900E-1	6.05849E-1	1.00000E-3	5.38614E-2	5.38614E+1	3.60000E+1	3.80130E+1	6.94624E+4
