B_digital_(T)	B_analog_(T)	I_s	V_s	R_s	T_VTI_(K)	T_sample_(K)	Time
5.99900E-1	6.03912E-1	2.00000E-6	7.17098E-2	3.58549E+4	2.60000E+1	2.80280E+1	5.81777E+4
3.99900E-1	4.01932E-1	2.00000E-6	4.63772E-2	2.31886E+4	2.59990E+1	2.80260E+1	5.82657E+4
1.99900E-1	2.00750E-1	2.00000E-6	2.11988E-2	1.05994E+4	2.60020E+1	2.80230E+1	5.83526E+4
0.00000E+0	-6.70814E-5	2.00000E-6	-3.14300E-3	-1.57150E+3	2.60020E+1	2.80200E+1	5.84734E+4
-1.99900E-1	-1.99107E-1	2.00000E-6	-2.88574E-2	-1.44287E+4	2.60010E+1	2.80200E+1	5.85625E+4
-3.99900E-1	-4.00688E-1	2.00000E-6	-5.45805E-2	-2.72903E+4	2.60000E+1	2.80170E+1	5.86496E+4
-5.99900E-1	-6.02429E-1	2.00000E-6	-8.00106E-2	-4.00053E+4	2.60020E+1	2.80160E+1	5.87366E+4
5.99900E-1	6.03417E-1	2.00000E-6	7.21238E-2	3.60619E+4	2.60020E+1	2.80160E+1	5.88836E+4
