B_digital_(T)	B_analog_(T)	I_s	V_s	R_s	T_VTI_(K)	T_sample_(K)	Time
5.99900E-1	6.05437E-1	1.00000E-3	8.73623E-2	8.73623E+1	4.40510E+1	4.60360E+1	7.53263E+4
3.99900E-1	4.02957E-1	1.00000E-3	6.01221E-2	6.01221E+1	4.40260E+1	4.60440E+1	7.54145E+4
1.99900E-1	2.01055E-1	1.00000E-3	3.34803E-2	3.34803E+1	4.39800E+1	4.60340E+1	7.55024E+4
0.00000E+0	-2.94164E-5	1.00000E-3	7.42654E-3	7.42654E+0	4.39910E+1	4.60050E+1	7.56235E+4
-1.99900E-1	-1.99983E-1	1.00000E-3	-1.71588E-2	-1.71588E+1	4.40090E+1	4.60190E+1	7.57135E+4
-3.99900E-1	-4.01717E-1	1.00000E-3	-4.20602E-2	-4.20602E+1	4.40080E+1	4.60280E+1	7.58004E+4
-5.99900E-1	-6.03711E-1	1.00000E-3	-6.79233E-2	-6.79233E+1	4.39970E+1	4.60200E+1	7.58885E+4
5.99900E-1	6.05025E-1	1.00000E-3	8.76439E-2	8.76439E+1	4.40010E+1	4.60050E+1	7.60355E+4
