B_digital_(T)	B_analog_(T)	I_s	V_s	R_s	T_VTI_(K)	T_sample_(K)	Time
5.99900E-1	6.03994E-1	4.00000E-6	8.00009E-2	2.00002E+4	2.70010E+1	2.90310E+1	5.94227E+4
3.99900E-1	4.01774E-1	4.00000E-6	5.46176E-2	1.36544E+4	2.70010E+1	2.90240E+1	5.95095E+4
1.99900E-1	2.00636E-1	4.00000E-6	2.89056E-2	7.22641E+3	2.70030E+1	2.90250E+1	5.95977E+4
0.00000E+0	-6.70814E-5	4.00000E-6	3.23761E-3	8.09403E+2	2.69990E+1	2.90230E+1	5.97187E+4
-1.99900E-1	-1.99678E-1	4.00000E-6	-2.11146E-2	-5.27866E+3	2.69990E+1	2.90220E+1	5.98087E+4
-3.99900E-1	-4.01242E-1	4.00000E-6	-4.64243E-2	-1.16061E+4	2.70030E+1	2.90170E+1	5.98966E+4
-5.99900E-1	-6.03008E-1	4.00000E-6	-7.21203E-2	-1.80301E+4	2.69970E+1	2.90140E+1	5.99845E+4
5.99900E-1	6.04118E-1	4.00000E-6	8.07624E-2	2.01906E+4	2.70010E+1	2.90140E+1	6.01317E+4
