B_digital_(T)	B_analog_(T)	I_s	V_s	R_s	T_VTI_(K)	T_sample_(K)	Time
5.99900E-1	6.05808E-1	1.00000E-3	1.71538E-1	1.71538E+2	3.99380E+1	4.20040E+1	7.18323E+4
3.99900E-1	4.03272E-1	1.00000E-3	1.17751E-1	1.17751E+2	4.00170E+1	4.20280E+1	7.19192E+4
1.99900E-1	2.01284E-1	1.00000E-3	6.41934E-2	6.41934E+1	4.00290E+1	4.20470E+1	7.20062E+4
0.00000E+0	1.21232E-4	1.00000E-3	1.26080E-2	1.26080E+1	3.99890E+1	4.20360E+1	7.21274E+4
-1.99900E-1	-2.00174E-1	1.00000E-3	-3.57787E-2	-3.57787E+1	3.99910E+1	4.20260E+1	7.22163E+4
-3.99900E-1	-4.02073E-1	1.00000E-3	-8.59635E-2	-8.59635E+1	4.00030E+1	4.20160E+1	7.23033E+4
-5.99900E-1	-6.04290E-1	1.00000E-3	-1.35428E-1	-1.35428E+2	4.00050E+1	4.20350E+1	7.23916E+4
5.99900E-1	6.05396E-1	1.00000E-3	1.71119E-1	1.71119E+2	3.99990E+1	4.20060E+1	7.25376E+4
